{
	"textures": {
		"texture": "block/mineandglory/portal/red_portal"
    },
    "display": {
        "gui": {
            "rotation": [ 45, -75, 0 ],
            "translation": [ 0, 0, 0 ],
            "scale": [ 0.625, 0.625, 0.312 ]
        },
        "ground": {
            "rotation": [ 0, 0, 0 ],
            "translation": [ 0, 3, 0 ],
            "scale": [ 0.25, 0.25, 0.12 ]
        },
        "fixed": {
            "rotation": [ 0, 180, 0 ],
            "translation": [ 0, 0, 0 ],
            "scale": [ 1, 1, 0.5 ]
        },
        "head": {
            "rotation": [ 0, 180, 0 ],
            "translation": [ 0, 0, 0 ],
            "scale": [ 1, 1, 0.5 ]
        },
        "firstperson_righthand": {
            "rotation": [ 0, 315, 0 ],
            "translation": [ 0, 2.5, 0 ],
            "scale": [ 0.4, 0.4, 0.2 ]
        },
        "thirdperson_righthand": {
            "rotation": [ 75, 315, 0 ],
            "translation": [ 0, 2.5, 0 ],
            "scale": [ 0.375, 0.375, 0.137 ]
        }
    },
    "elements": [
        {
            "from": [ 0, 0, 0 ], 
            "to": [ 16, 16, 16 ], 
            "faces": {
                "north": { "texture": "#texture", "uv": [ 0, 0, 16, 16 ] },
                "east": { "texture": "#texture", "uv": [ 0, 0, 16, 16 ] },
                "south": { "texture": "#texture", "uv": [ 0, 0, 16, 16 ] },
                "west": { "texture": "#texture", "uv": [ 0, 0, 16, 16 ] },
                "up": { "texture": "#texture", "uv": [ 0, 0, 16, 16 ] },
                "down": { "texture": "#texture", "uv": [ 0, 0, 16, 16 ] }
            }
        }
    ]
}